{
  "label": "Karix-header",
  "css_assets": [],
  "external_js": [],
  "global": false,
  "help_text": "",
  "host_template_types": [
    "PAGE"
  ],
  "js_assets": [],
  "other_assets": [],
  "smart_type": "NOT_SMART",
  "tags": [],
  "is_available_for_new_content": false,
  "categories": [
    "body_content"
  ]
}